<?xml version="1.0" encoding="UTF-8" standalone="no"?>
<!-- Created with Inkscape (http://www.inkscape.org/) -->

<svg
   id="svg2"
   sodipodi:docname="favicon.svg"
   viewBox="0 0 42.596722 57.810612"
   sodipodi:version="0.32"
   version="1.0"
   inkscape:output_extension="org.inkscape.output.svg.inkscape"
   inkscape:version="1.1.2 (0a00cf5339, 2022-02-04)"
   width="42.596722"
   height="57.810612"
   xmlns:inkscape="http://www.inkscape.org/namespaces/inkscape"
   xmlns:sodipodi="http://sodipodi.sourceforge.net/DTD/sodipodi-0.dtd"
   xmlns="http://www.w3.org/2000/svg"
   xmlns:svg="http://www.w3.org/2000/svg"
   xmlns:rdf="http://www.w3.org/1999/02/22-rdf-syntax-ns#"
   xmlns:cc="http://creativecommons.org/ns#"
   xmlns:dc="http://purl.org/dc/elements/1.1/">
  <defs
     id="defs4" />
  <sodipodi:namedview
     id="base"
     bordercolor="#666666"
     inkscape:pageshadow="2"
     guidetolerance="10"
     pagecolor="#ffffff"
     gridtolerance="10000"
     inkscape:window-height="961"
     inkscape:zoom="2.8284271"
     objecttolerance="10"
     showgrid="false"
     borderopacity="1.0"
     inkscape:current-layer="layer1"
     inkscape:cx="31.819805"
     inkscape:cy="30.405592"
     inkscape:window-y="0"
     inkscape:window-x="2229"
     inkscape:window-width="1538"
     inkscape:pageopacity="0.0"
     inkscape:document-units="px"
     inkscape:pagecheckerboard="0"
     inkscape:window-maximized="0"
     fit-margin-top="0"
     fit-margin-left="0"
     fit-margin-right="0"
     fit-margin-bottom="0" />
  <g
     id="layer1"
     inkscape:label="Layer 1"
     inkscape:groupmode="layer"
     transform="translate(-42.93711,-3.8087672)">
    <path
       id="path2792"
       sodipodi:nodetypes="ccccc"
       style="fill:#e9d2af;fill-rule:evenodd;stroke:#3f2d10;stroke-width:1px"
       d="m 70.359,54.914 c -0.656,4.859 -9.388,5.336 -13.349,1.777 0.626,-2.689 0.793,-5.782 3.099,-7.65 2.15,-0.765 4.435,-0.648 6.68,-0.525 2,0.928 3.555,4.614 3.57,6.398 z" />
    <path
       id="path2649"
       sodipodi:nodetypes="ccccccc"
       style="fill:#e9d2af;fill-rule:evenodd;stroke:#3f2d10;stroke-width:1px"
       d="m 78.887,17.291 c 1.409,4.8 -0.634,10.453 -1.892,15.155 1.823,5.854 1.586,11.192 -3.966,15.862 -6.425,2.088 -20.155,3.054 -22.354,-5.99 C 49.308,30.94 51.788,37.493 49.202,27.989 48.347,15.675 52.716,7.328 64.291,8.223 c 8.002,-0.2621 11.437,3.865 14.596,9.068 z" />
    <path
       id="path3359"
       style="fill:#372416;fill-rule:evenodd;stroke:#120a04;stroke-width:1px"
       d="m 74.425,20.561 c 0,0 -7.16,-4.508 -7.072,-2.563 0.089,1.944 7.072,2.651 7.072,2.563 z" />
    <path
       id="path2696"
       sodipodi:nodetypes="cccc"
       style="fill:#ffffff;fill-rule:evenodd;stroke:#333333;stroke-width:1px"
       d="m 60.676,24.017 c 1.415,2.976 0.387,4.751 -2.545,4.366 -0.891,0.411 -2.8,-1.75 -2.394,-3.211 -0.386,-3.898 2.996,-4.039 4.939,-1.155 z" />
    <path
       id="path2698"
       sodipodi:nodetypes="ccc"
       style="fill:#ffffff;fill-rule:evenodd;stroke:#333333;stroke-width:1px"
       d="m 68.589,21.886 c 2.592,0.486 3.834,2.263 3.375,4.945 -2.899,5.066 -8.69,-2.058 -3.375,-4.945 z" />
    <path
       id="path2700"
       sodipodi:nodetypes="cssc"
       style="fill:#000000;fill-opacity:1;fill-rule:evenodd;stroke:#582b00;stroke-width:1px;stroke-opacity:1"
       d="m 57.452161,25.388222 c -0.623,0.02 0.722,-2.049 2.306,-0.526 1.227,1.18 -0.052,2.781 -0.951,2.915 -1.806,0.268 -2.13,-2.179 -1.355,-2.389 z" />
    <path
       id="path2702"
       sodipodi:nodetypes="cssc"
       style="fill:#000000;fill-rule:evenodd;stroke:#582b00;stroke-width:1px;stroke-opacity:1"
       d="m 69.18,25.101 c -0.473,-0.941 2.174,-0.224 1.533,1.975 -0.442,1.517 -2.115,0.616 -2.242,0.537 -1.698,-1.057 -0.385,-3.846 0.709,-2.512 z" />
    <path
       id="path2704"
       sodipodi:nodetypes="ccc"
       style="fill:#e9d2af;fill-rule:evenodd;stroke:#3f2d10;stroke-width:1px"
       d="m 64.979,29.568 c 0.613,1.833 1.444,6.911 -3.812,5.583 -1.036,-3.599 0.441,-6.641 1.944,-7.518" />
    <path
       id="path2706"
       sodipodi:nodetypes="cc"
       style="fill:none;stroke:#3f2d10;stroke-width:1px"
       d="m 67.121,42.55 c -1.25,-1.836 -5.857,-1.813 -6.965,0.884" />
    <path
       id="path2708"
       sodipodi:nodetypes="cc"
       style="fill:#e9d2af;fill-rule:evenodd;stroke:#3f2d10;stroke-width:1px"
       d="m 49.912,22.41 c -7.414,-2.958 -4.337,7.177 -0.151,6.003" />
    <path
       id="path2710"
       sodipodi:nodetypes="cs"
       style="fill:#e9d2af;fill-rule:evenodd;stroke:#3f2d10;stroke-width:1px"
       d="m 48.937,23.926 c -2.128,-1.583 -2.942,1.604 0.174,2.998" />
    <path
       id="path2743"
       sodipodi:nodetypes="cc"
       style="fill:#e9d2af;fill-rule:evenodd;stroke:#3f2d10;stroke-width:1px"
       d="m 77.428,24.488 c 7.747,-1.921 3.319,7.7 -0.668,5.967" />
    <path
       id="path2745"
       sodipodi:nodetypes="cs"
       style="fill:#e9d2af;fill-rule:evenodd;stroke:#3f2d10;stroke-width:1px"
       d="m 78.187,26.123 c 2.324,-1.279 2.696,1.989 -0.581,2.945" />
    <path
       id="path3351"
       sodipodi:nodetypes="cscccccccc"
       style="fill:#8e7839;fill-opacity:1;fill-rule:evenodd;stroke:#120a04;stroke-width:1px"
       d="m 65.166,8.9983 c -2.054,-3.4456 1.214,-6.89 8,-2.875 17.474,10.339 4.258,44.993 10.875,50.5 -3.167,-0.193 -5.024,4.681 -4.375,4.5 0.138,-6.893 -4.735,-13.104 -5,-2.25 -3.979,-7.652 4.236,-13.152 2.729,-21.567 -0.583,3.844 -0.723,7.234 -3.604,9.192 4.089,-15.261 3.437,-27.678 -4.25,-35.875 2.766,3.934 2.732,6.85 3,9.875 -1.374,-4.762 -2.777,-9.5 -7.375,-11.5 z" />
    <path
       id="path3361"
       style="fill:#372416;fill-rule:evenodd;stroke:#120a04;stroke-width:1px"
       d="m 52.857,20.561 c 0,0 7.159,-4.508 7.071,-2.563 -0.088,1.944 -7.071,2.651 -7.071,2.563 z" />
    <path
       id="path3353"
       sodipodi:nodetypes="ccccccccsc"
       style="fill:#8e7839;fill-opacity:1;fill-rule:evenodd;stroke:#120a04;stroke-width:1px"
       d="M 63.291,9.2483 C 65.986,1.5856 51.637,5.1626 47.166,15.248 c -2.75,10.125 -4.125,26.625 -3.625,32.5 0.5,5.875 2.625,8.375 2.625,8.375 -1.047,-4.463 -2.309,-9.142 -0.125,-10.375 l 3.25,12.375 c -0.184,-4.639 -2.594,-9.836 -0.375,-13.875 2.086,-2.548 2.644,4.906 2.25,5.375 1.161,-1.454 2.399,-10.624 0.125,-12.625 -2.398,-2.11 1.542,-30.597 12,-27.75 z" />
    <path
       id="path3363"
       sodipodi:nodetypes="cccc"
       style="fill:#b09f92;fill-opacity:1;fill-rule:evenodd"
       d="m 73.166,14.123 c 9.567,2.168 3.693,29.867 1.375,31.313 2.564,-10.536 2.82,-21.85 -0.625,-29.813 z" />
    <path
       id="path3365"
       sodipodi:nodetypes="cccc"
       style="fill:#9e8b7b;fill-opacity:1;fill-rule:evenodd"
       d="m 52.541,18.873 c -4.253,7.342 -3.762,14.21 -5,21.25 1.07,-6.933 -4.758,-15.052 5.25,-22.875 z" />
    <path
       id="path3367"
       sodipodi:nodetypes="cccc"
       style="fill:#6f5e51;fill-rule:evenodd"
       d="m 69.666,4.9983 c 7.567,6.0427 7.318,5.7417 9.625,11.813 -2.811,-5.036 -7.055,-7.8503 -12.5,-11.438 l 2.875,-0.3747 z" />
    <path
       id="path3369"
       sodipodi:nodetypes="cccc"
       style="fill:#9b8778;fill-opacity:1;fill-rule:evenodd"
       d="m 78.916,38.891 c 7.567,6.043 -0.871,13.922 1.436,19.993 -2.811,-5.036 1.797,-13.728 -1.772,-19.316 z" />
  </g>
  <metadata
     id="metadata56">
    <rdf:RDF>
      <cc:Work>
        <dc:format>image/svg+xml</dc:format>
        <dc:type
           rdf:resource="http://purl.org/dc/dcmitype/StillImage" />
        <cc:license
           rdf:resource="http://creativecommons.org/publicdomain/zero/1.0/" />
        <dc:publisher>
          <cc:Agent
             rdf:about="http://openclipart.org/">
            <dc:title>Openclipart</dc:title>
          </cc:Agent>
        </dc:publisher>
        <dc:title>Comic characters: Photographer</dc:title>
        <dc:date>2009-03-05T14:29:10</dc:date>
        <dc:description>Comic characters: a bearded photographer</dc:description>
        <dc:source>https://openclipart.org/detail/21887/comic-characters:-photographer-by-nicubunu</dc:source>
        <dc:creator>
          <cc:Agent>
            <dc:title>nicubunu</dc:title>
          </cc:Agent>
        </dc:creator>
        <dc:subject>
          <rdf:Bag>
            <rdf:li>camera</rdf:li>
            <rdf:li>cartoon</rdf:li>
            <rdf:li>character</rdf:li>
            <rdf:li>comic</rdf:li>
            <rdf:li>funny</rdf:li>
            <rdf:li>guy</rdf:li>
            <rdf:li>human</rdf:li>
            <rdf:li>people</rdf:li>
            <rdf:li>photograph</rdf:li>
            <rdf:li>photographer</rdf:li>
            <rdf:li>photography</rdf:li>
          </rdf:Bag>
        </dc:subject>
      </cc:Work>
      <cc:License
         rdf:about="http://creativecommons.org/licenses/publicdomain/">
        <cc:permits
           rdf:resource="http://creativecommons.org/ns#Reproduction" />
        <cc:permits
           rdf:resource="http://creativecommons.org/ns#Distribution" />
        <cc:permits
           rdf:resource="http://creativecommons.org/ns#DerivativeWorks" />
      </cc:License>
    </rdf:RDF>
  </metadata>
</svg>
